%YAML 1.1
%TAG !u! tag:unity3d.com,2011:
--- !u!1 &8530834100432605678
GameObject:
  m_ObjectHideFlags: 0
  m_CorrespondingSourceObject: {fileID: 0}
  m_PrefabInstance: {fileID: 0}
  m_PrefabAsset: {fileID: 0}
  serializedVersion: 6
  m_Component:
  - component: {fileID: 8530834100432605679}
  m_Layer: 13
  m_Name: MobShell
  m_TagString: Untagged
  m_Icon: {fileID: 0}
  m_NavMeshLayer: 0
  m_StaticEditorFlags: 0
  m_IsActive: 1
--- !u!4 &8530834100432605679
Transform:
  m_ObjectHideFlags: 0
  m_CorrespondingSourceObject: {fileID: 0}
  m_PrefabInstance: {fileID: 0}
  m_PrefabAsset: {fileID: 0}
  m_GameObject: {fileID: 8530834100432605678}
  m_LocalRotation: {x: 0, y: 0, z: 0, w: 1}
  m_LocalPosition: {x: 2.23, y: 0, z: 0}
  m_LocalScale: {x: 1, y: 1, z: 1}
  m_Children:
  - {fileID: 8208132580109134363}
  m_Father: {fileID: 0}
  m_RootOrder: 0
  m_LocalEulerAnglesHint: {x: 0, y: 0, z: 0}
--- !u!54 &8530834101994074448
Rigidbody:
  m_ObjectHideFlags: 0
  m_CorrespondingSourceObject: {fileID: 0}
  m_PrefabInstance: {fileID: 0}
  m_PrefabAsset: {fileID: 0}
  m_GameObject: {fileID: 8836895603570471073}
  serializedVersion: 2
  m_Mass: 5
  m_Drag: 1
  m_AngularDrag: 1
  m_UseGravity: 1
  m_IsKinematic: 0
  m_Interpolate: 0
  m_Constraints: 0
  m_CollisionDetection: 0
--- !u!64 &8530834101994074455
MeshCollider:
  m_ObjectHideFlags: 0
  m_CorrespondingSourceObject: {fileID: 0}
  m_PrefabInstance: {fileID: 0}
  m_PrefabAsset: {fileID: 0}
  m_GameObject: {fileID: 8836895603570471073}
  m_Material: {fileID: 0}
  m_IsTrigger: 0
  m_Enabled: 1
  serializedVersion: 4
  m_Convex: 1
  m_CookingOptions: 30
  m_Mesh: {fileID: 8204137566577028532, guid: 35bb286aecfa27d478884b3093079a5d, type: 3}
--- !u!1001 &8530834101136674288
PrefabInstance:
  m_ObjectHideFlags: 0
  serializedVersion: 2
  m_Modification:
    m_TransformParent: {fileID: 8530834100432605679}
    m_Modifications:
    - target: {fileID: -8679921383154817045, guid: 35bb286aecfa27d478884b3093079a5d, type: 3}
      propertyPath: m_LocalPosition.x
      value: 0
      objectReference: {fileID: 0}
    - target: {fileID: -8679921383154817045, guid: 35bb286aecfa27d478884b3093079a5d, type: 3}
      propertyPath: m_LocalPosition.y
      value: 1
      objectReference: {fileID: 0}
    - target: {fileID: -8679921383154817045, guid: 35bb286aecfa27d478884b3093079a5d, type: 3}
      propertyPath: m_LocalPosition.z
      value: 0
      objectReference: {fileID: 0}
    - target: {fileID: -8679921383154817045, guid: 35bb286aecfa27d478884b3093079a5d, type: 3}
      propertyPath: m_LocalRotation.x
      value: -0
      objectReference: {fileID: 0}
    - target: {fileID: -8679921383154817045, guid: 35bb286aecfa27d478884b3093079a5d, type: 3}
      propertyPath: m_LocalRotation.y
      value: -0
      objectReference: {fileID: 0}
    - target: {fileID: -8679921383154817045, guid: 35bb286aecfa27d478884b3093079a5d, type: 3}
      propertyPath: m_LocalRotation.z
      value: -0
      objectReference: {fileID: 0}
    - target: {fileID: -8679921383154817045, guid: 35bb286aecfa27d478884b3093079a5d, type: 3}
      propertyPath: m_LocalRotation.w
      value: 1
      objectReference: {fileID: 0}
    - target: {fileID: -8679921383154817045, guid: 35bb286aecfa27d478884b3093079a5d, type: 3}
      propertyPath: m_RootOrder
      value: 0
      objectReference: {fileID: 0}
    - target: {fileID: -8679921383154817045, guid: 35bb286aecfa27d478884b3093079a5d, type: 3}
      propertyPath: m_LocalEulerAnglesHint.x
      value: 0
      objectReference: {fileID: 0}
    - target: {fileID: -8679921383154817045, guid: 35bb286aecfa27d478884b3093079a5d, type: 3}
      propertyPath: m_LocalEulerAnglesHint.y
      value: 0
      objectReference: {fileID: 0}
    - target: {fileID: -8679921383154817045, guid: 35bb286aecfa27d478884b3093079a5d, type: 3}
      propertyPath: m_LocalEulerAnglesHint.z
      value: 0
      objectReference: {fileID: 0}
    - target: {fileID: -7511558181221131132, guid: 35bb286aecfa27d478884b3093079a5d, type: 3}
      propertyPath: m_Materials.Array.data[0]
      value: 
      objectReference: {fileID: 2100000, guid: 257beb66c905a5c43972490c005a48bf, type: 2}
    - target: {fileID: 919132149155446097, guid: 35bb286aecfa27d478884b3093079a5d, type: 3}
      propertyPath: m_Name
      value: mobBase
      objectReference: {fileID: 0}
    - target: {fileID: 919132149155446097, guid: 35bb286aecfa27d478884b3093079a5d, type: 3}
      propertyPath: m_Layer
      value: 13
      objectReference: {fileID: 0}
    m_RemovedComponents: []
  m_SourcePrefab: {fileID: 100100000, guid: 35bb286aecfa27d478884b3093079a5d, type: 3}
--- !u!1 &8836895603570471073 stripped
GameObject:
  m_CorrespondingSourceObject: {fileID: 919132149155446097, guid: 35bb286aecfa27d478884b3093079a5d, type: 3}
  m_PrefabInstance: {fileID: 8530834101136674288}
  m_PrefabAsset: {fileID: 0}
--- !u!4 &8208132580109134363 stripped
Transform:
  m_CorrespondingSourceObject: {fileID: -8679921383154817045, guid: 35bb286aecfa27d478884b3093079a5d, type: 3}
  m_PrefabInstance: {fileID: 8530834101136674288}
  m_PrefabAsset: {fileID: 0}
